{
    "Servers": {
        "1": {
            "Name": "Gitpod PostgreSQL",
            "Group": "Default Servers",
            "Port": 5432,
            "Username": "gitpod",
            "Host": "127.0.0.1",
            "SSLMode": "prefer",
            "MaintenanceDB": "postgres"
        }
    }
}
